^F:\VC2013PROJECT\AUTOMATICNUMBERINGMACHINE\AUTOMATICNUMBERINGMACHINE\DEBUG\CUSTOMER.OBJ|F:\VC2013PROJECT\AUTOMATICNUMBERINGMACHINE\AUTOMATICNUMBERINGMACHINE\DEBUG\DEMO.OBJ|F:\VC2013PROJECT\AUTOMATICNUMBERINGMACHINE\AUTOMATICNUMBERINGMACHINE\DEBUG\MYQUEUE.OBJ
F:\VC2013PROJECT\AUTOMATICNUMBERINGMACHINE\DEBUG\AUTOMATICNUMBERINGMACHINE.ILK
F:\VC2013PROJECT\AUTOMATICNUMBERINGMACHINE\DEBUG\AUTOMATICNUMBERINGMACHINE.EXE
F:\VC2013PROJECT\AUTOMATICNUMBERINGMACHINE\DEBUG\AUTOMATICNUMBERINGMACHINE.PDB
